Name: Joe
POW: 500
DEF: 300
ATT: 60 15 Giga
ATT: 10 50 Super
HP: 5000
ENVIRONMENTAL: 20 10 4 Fog of Acid
HEAL_SPELL: 25 10 4500

Name: Fred
POW: 25
DEF: 30
ATT: 60 15 Giga
HEAL_SPELL: 25 10 800
HP: 2000
ENVIRONMENTAL: 20 35 3 Fire Mist
WIMPY_CHANCE: 20 5

Name: Steve
POW: 25
DEF: 30
ATT: 60 15 Giga
HEAL_SPELL: 25 10 800
HP: 20000
ENVIRONMENTAL: 20 35 3 Fire Mist
WIMPY_CHANCE: 99 19000

